PARTS FILE FOR WEBSITE
"PART NO","DESCRIPTION","PRICE","WEIGHT","O/HAND"
"14MMBT-6MJ","BUMP TUBE ADAPTOR",3.85,.03,168
"16MMBT-6FI","BUMP TUBE ADAPTOR",3.85,.035,167
"16MMBT-6MJ","BUMP TUBE ADAPTOR",3.85,.035,1100
"1715 764 301","SUPERBRIGHT U/V LIGHT",0,0,0
"1892 764 031","UV DYE CONCENTRATE - 236mm",0,0,0
"18MMBT-6MJ","BUMP TUBE ADAPTOR",4.2,0,0
"58MBT-5MJ","BUMP TUBE ADAPTOR",4,.025,1080
"5MBT-5MJ","BUMP TUBE ADAPTOR",3.85,.025,1440
"5MBT-6MJ","BUMP TUBE ADAPTOR",4,.03,1064
"7MBT-6MJ","BUMP TUBE ADAPTOR",3.85,.04,174
"BAN10SS","10MM SHORT BANJO BOLT - SS",7,0,0
"BE-04 ACC PACK","BE-04 ACCESSORIES PACK",0,1.35,-4
"BH-CERT","CERTIFICATE OF COMPLIANCE (30)",0,0,142
"BQ-CAT","BRAKEQUIP PICTORIAL CATALOGUE",40,0,0
"BQ-CTCR","COMPLIANCE CERTIFICATE RUBBER",75,0,0
"BQ-CTCSS","COMPLIANCE CERTIFICATE S/STEEL",200,0,0
"BQ-HBM","HOSE BUILD MANUAL",75,0,0
"BQ-LAB1","FITTING LABEL SET - START UP",15,0,0
"BQ-OSM","OPERATING & SERVIVE MANUAL",75,0,0
"BQ027014","TURRET ASSEMBLY",155,.275,1
"BQ027025","DIE CLAMP SCREW C/W T/BAR",26,.16,2
"BQ027027","HANDLE C/W SLEEVE",19.5,.325,3
"BQ027031","DIE SET-3/16"",47.5,.175,4
"BQ027032","DIE SET - 1/4"",47.5,.17,3
"BQ027033","DIE SET- 5/16"",47.5,.17,0
"BQ027034","DIE SET - 3/8"",47.5,.18,1
"BQ027044","DIE SET - 10mm",51,.18,1
"BQ027051","PUNCH 3/16" OP1",18,.015,3
"BQ027052","PUNCH 1/4"-6MM OP.1",18,.02,2
"BQ027053","PUNCH 5/16"-8MM OP.1",18,.025,0
"BQ027054","PUNCH-3/8"-10MMOP.1",18,.025,1
"BQ027071","PUNCH-OP.2-3/161/44.756.0",18,.015,1
"BQ027072","PUNCH OP.2-5/163/88.010.0",18,.025,1
"BQ08","COMMODORE HOSE CENTRE MOUNT",3.5,.01,862
"BQ09","SUBARU HOSE CENTRE MOUNT",3.5,.005,570
"BQ10","PRINTED PACKAGING SLEEVE 100M",27.5,.925,95
"BQ101","BRAKE HOSE 1/8"",6.5,.085,18793.27
"BQ101-200","BRAKE HOSE 1/8 MEIJI 200m BOX",1150,17.98,1
"BQ1016","COPPER WASHER 10MM ID",6.5,.03,438
"BQ1019","1/8" ID S/S HOSE EXPANDER",.95,.001,197
"BQ102","1/8 BRAKE HOSE 2.85m LENGTH",5,0,0
"BQ1020","BANJO TEST PIECE",4.95,0,0
"BQ1022","RECLAIMED FITTING TEST ADAPTOR",2.75,.005,482
"BQ1023","CONVERTER ADAPTOR-TEST CONES",5,.025,191
"BQ1024","CONVERTER ADAPTOR-TEST CONES",5,.025,191
"BQ1025","TUBE STRAIGHTENER",195,4.74,106
"BQ11","SPRING PROTECTOR 400MM",.95,.02,3182
"BQ110","JOINER 3/8X24 - SEAT 'X",3,.015,651
"BQ111","JOINER 7/16X24 - SEAT 'X",3,.02,68
"BQ1118","COPPER WASHER 7/16 ID",.45,.002,3476
"BQ112","JOINER 1/2X20  SEAT 'X",3.25,.025,92
"BQ113","JOINER 5/8X18  SEAT 'X",3.75,.03,145
"BQ114","JOINER 10X1MM  SEAT 'Y",3,.02,936
"BQ115","JOINER 3/8X24  SEAT 'Y",3,.02,134
"BQ116","JOINER 12X1MM  SEAT 'X",3.25,.025,99
"BQ117","JOINER 10X1 INV SEATS",3,.015,167
"BQ12","12MM E CLIP PKT OF 100",25,.112,20
"BQ120","ADAPTOR 1/2X20 - 3/8X24",3.2,.023,97
"BQ121","ADAPTOR 9/16X20 - 3/8X24",3.2,.03,55
"BQ1218","COPPER WASHER 12MM ID (20)",8.5,.04,5
"BQ122","ADAPTOR 1/2X20 - 7/16X24",3.2,.022,75
"BQ123","ADAPTOR 9/16X18 - 7/16X24",3.3,.029,34
"BQ124","ADAPTOR 9/16X18 - 3/8X24",3.3,.03,49
"BQ125","ADAPTOR 10X1MM - 3/8X24",3,.016,115
"BQ126","ADAPTOR 7/16X20 - 10X1MM",3,.019,82
"BQ127","ADAPTOR 7/16-24MALE X 1/2-20FM",3.5,.019,45
"BQ128","MALE TEST ADAPTOR",3.3,.018,45
"BQ129","MALE TEST ADAPTOR",3.3,.017,132
"BQ13","HALF NUT 5/8X18NF",.7,.019,3321
"BQ130","MALE TEST ADAPTOR",2.75,.029,264
"BQ131","MALE TEST ADAPTOR",2.75,.019,233
"BQ132","MALE TEST ADAPTOR",2.75,.013,273
"BQ1320","COPPER WASHER 1/2 ID",.45,.028,844
"BQ133","MALE TEST ADAPTOR",2.75,.013,278
"BQ134","MALE TEST ADAPTOR",2.75,.022,287
"BQ135","MALE TEST ADAPTOR",2.75,.017,222
"BQ14","ROLL PIN 4X16MM PKT OF 20",4,.021,337
"BQ1421","COPPER WASHER 9/16 ID",.5,.003,1174
"BQ144","MALE TEST ADAPTOR",3.75,.024,48
"BQ145","MALE TEST ADAPTOR",3.75,.015,46
"BQ15-1","BRAIDED HOSE INSERT ADR7 GREY",3.5,.0043,1815
"BQ15-2","BRAIDED HOSE INSERT ADR7 BLACK",3.5,.0043,6635
"BQ15-3","BRAIDED HOSE INSERT ADR7 BLUE",3.5,.0043,1054
"BQ15-4","BRAIDED HOSE INSERT ADR7 RED",3.5,.0043,1279
"BQ150","BANJO ADAPTOR 10MM LONG",4,.018,326
"BQ151","BANJO ADAPTOR 10MM SHORT",4,.012,301
"BQ152","BANJO ADAPTOR 10MM DOUBLE",4,.016,442
"BQ1522","COPPER WASHER 15MM ID",.48,.003,1346
"BQ153","WELD-ON FITTING",3,.008,178
"BQ155","BANJO ADAPTOR 10MMX7/16"",4.25,.021,48
"BQ156","PIPE ADAPTOR 3/8-24 M&F",3.25,.002,722
"BQ16","S/S BRAID HOSE INSERT OFF ROAD",3.5,.004,1641
"BQ160","FEMALE PLUG 3/8"-24NF",1.6,.01,319
"BQ161","FEMALE PLUG 7/16"-24NS",1.7,.013,449
"BQ162","FEMALE PLUG 7/16"-20NF",1.7,.014,453
"BQ1624","COPPER WASHER 16MM ID",.55,.004,453
"BQ163","FEMALE PLUG 1/2"-20NF",1.85,.018,460
"BQ164","FEMALE PLUG 10X1",1.65,.011,257
"BQ165","FEMALE PLUG 10X1.25",1.65,.011,463
"BQ166","FEMALE PLUG 12X1",1.95,.017,465
"BQ1666020","RENOLIN B32 OIL - 1LT",15,.943,3
"BQ167","FEMALE PLUG 12X1.5",2.2,.018,459
"BQ18","MALE PLUG 10X1",1.1,.003,1226
"BQ19","MALE PLUG 3/8"-24",1.1,.003,396
"BQ20","CONE WITH THREAD (BLANK)",9.5,.022,9
"BQ200","INSULATING HOSE THICK",6.5,.143,106.24
"BQ2000","STEEL HAND STAMPS (PAIR OF 2)",150,.301,17
"BQ2001","CONSTRICTION GAUGE",20,.06,12
"BQ2001W","CONSTRICTION GAUGE",7.5,.005,49
"BQ2002","CRIMP SETTING TOOL-NEW DESIGN",30,.191,4
"BQ2003","BRAKE HOSE CUTTER",14,.027,14
"BQ2004","BRAKE HOSE CUTTER BLADE",5.75,.001,40
"BQ2005","CRIMP HEAD DUST COVER",20,.112,3
"BQ2006","SHEARS - S/S BRAIDED HOSE",60,.334,10
"BQ2007","DOUBLE SIDED PROMOTIONAL FLYER",.2,.008,2725
"BQ2009","REAR CRIMP SETTING TOOL",35,.204,15
"BQ201","INSULATING HOSE THIN",6.5,.063,69.5
"BQ2014","BRAIDED HOSE FLYER",.2,.013,950
"BQ2022","BE-03/04 COOLING FAN",120,.556,4
"BQ203","MOULDED PROTECTOR",2.2,.01,854
"BQ2033","ANGLE GAUGE - STAINLESS STEEL",20,.113,98
"BQ205","BLANK CONE - SUIT BE-04",11,.018,43
"BQ2052","REPAIR KIT - BE03/04 CRIMPER",85,.123,2
"BQ2053","SPRING-JAWS 'STRAIGHT' ARMS",5.5,.004,122
"BQ2054","SPRING-JAWS 'BENT UP' ARMS",5.5,.003,111
"BQ205H","CONE WITH HOLE - SUIT BE-04",11,.018,39
"BQ206","BLANK TEST CONE",7,.015,87
"BQ206H","TEST CONE WITH HOLE",7,.014,87
"BQ206HS","TEST CONE HOLE-DPS FM SWIVEL",7,.009,43
"BQ206S","TEST CONE BLANK-DPS FM SWIVEL",7,.008,45
"BQ207","TEST CONE BLANK-INV FM FITTING",7,.008,45
"BQ207H","TEST CONE HOLE-INV FM FITTING",7,.009,45
"BQ208","TEST CONE BLANK-PONG FITTINGS",7,.01,39
"BQ208H","TEST CONE HOLE-LONG FITTING",7,.01,39
"BQ20H","CONE WITH THREAD (WITH HOLE)",9,.022,20
"BQ21","CONE WITH PLAIN SHANK",9,.009,205
"BQ210","HOSE GROMMET 30MM X 10.4MM",1.6,.008,303
"BQ2100","BrakeQuip THREAD GAUGE",225,1.085,33
"BQ2100A","3/8 X 24NF",12.5,.049,10
"BQ2100B","7/16 X 24N",12.5,.049,6
"BQ2100C","7/16 X 20NF",12.5,.046,3
"BQ2100D","1/2 X 20NF",12.5,.044,3
"BQ2100E","M10 X 1.0",12.5,.047,10
"BQ2100F","M10 X 1.25",12.5,.048,6
"BQ2100G","M12 X 1.0",12.5,.047,3
"BQ2100H","M12 X 1.5",12.5,.046,3
"BQ2100J","9/16 X 18NF",12.5,.043,3
"BQ2100K","9/16 X 20NS",12.5,.042,3
"BQ2100L","M9 X 1.0",12.5,.05,1
"BQ2100M","M10 X 1.5",12.5,.049,3
"BQ2100N","M12 X 1.25",12.5,.045,3
"BQ2100P","M11 X 1.25",12.5,.048,1
"BQ2100Q","M14 X 1.5",12.5,.046,1
"BQ2100R","3/8 X 20BSF",12.5,.049,3
"BQ2101","10MM COBOLT DRILL BIT",17.5,.065,7
"BQ2102","SPRAY GUARD BE-04",25,.079,1
"BQ211","HOSE GROMMET 18MM X 10.45MM",1.75,.003,263
"BQ212","HOSE RUBBER MOULDING",2.3,.008,406
"BQ2124001","TITAN COOLANT-1LT CONCENTRATE",13,1.166,1
"BQ213","CENTRE RUBBER",3.3,.013,1167
"BQ215","CENTRE RUBBER",3.3,.007,1246
"BQ2150","SLIDE ROD",80,.153,6
"BQ2151","THUMBWHEEL",45,.111,10
"BQ2152","PRESSURE HEAD",80,.142,4
"BQ2153","TOGGLE LINK",6,.015,10
"BQ2154","8X12X10 NEEDLE ROLLER",12,.004,2
"BQ2155","3/8X9/16X3/8 NEEDLE ROLLER",12,.004,3
"BQ2156","PRESSURE HEAD",75,.146,3
"BQ2157","3-WAY SELECTOR SWITCH",45,.046,0
"BQ2158","ON-OFF SWITCH",35,.069,2
"BQ2159","GAUGE HOSE-STRAIGHT",95,.058,5
"BQ216","CENTRE RUBBER",3.3,.011,1001
"BQ2160","GAUGE HOSE - 90deg",95,.084,4
"BQ21600","PIPE AID PLIERS 3/16"TUBE",70,.453,0
"BQ2161","CIRCUIT BOARD BE-04",0,0,0
"BQ2162","SAFETY GUARD RELAY",120,.035,1
"BQ2163","CIRCUIT BREAKER",50,.101,2
"BQ2164","RELAY 1",180,.36,2
"BQ2165","TRANSFORMER",220,.82,2
"BQ217","CENTRE RUBBER",3.3,.012,1113
"BQ219","CENTRE-FALCON RUBBER HOSE",8.25,.008,1584
"BQ219A","CENTRE-FALCON BRAIDED HOSE",8.25,.009,685
"BQ220","CENTRE RUBBER",5.5,.011,525
"BQ2200","BLEEDER BUSTER KIT",50,.64,20
"BQ221","CENTRE RUBBER",5.5,.019,549
"BQ22100","TUBE CUTTER",30,.292,21
"BQ22101","REPLACEMENT WHEELS (2PK)",20,.006,42
"BQ222","4 WAY THRU CHASSIS BLOCK",5.95,.155,118
"BQ223","WELD-ON BANJO 10X8",3.5,.011,117
"BQ224","WELD-ON BANJO 10X10",3.5,.014,110
"BQ225","WELD-ON BANJO 7/16"X10",3.5,.015,74
"BQ22A","BANJO BENDING TOOL",12.5,.274,21
"BQ22B","BANJO BENDING TOOL HOLDER",35,.261,17
"BQ23","FITTING SUPPORT SPADE",5.95,.032,56
"BQ230","HOSE RUBBER MOULDING",2.75,.007,478
"BQ231","STAINLESS STEEL PROTECTION3/16",6.75,.08,138
"BQ232","STAINLESS STEEL PROTECTION 1/4",7.25,.094,98
"BQ235","CENTRE RUBBER - MOULDED",5.5,.005,1090
"BQ24","TEST ADAPTOR 10X1MM",2.5,.012,5
"BQ241","'P' CLIP SUPPORT",3,.005,718
"BQ242","WIRE SUPPORT",3,.006,469
"BQ25","SYNFLEX HOSE INSERT",3,.004,16
"BQ25600","TUBE BENDER 3/16" & 1/4"",40,.43,11
"BQ2577","TUBE NUT 7/16X24NS - 1/4 BUNDY",1.1,.006,378
"BQ2578","TUBE NUT 1/2X20NF - 5/16 BUNDY",1.1,.009,1336
"BQ26","FALCON AUII-ON HOSE CTR MOUNT",3.5,.006,564
"BQ26A","MALE PLUG 7/16"-24",1.75,.004,175
"BQ27000","PRESTIGE PIPE FLARING TOOL KIT",606,5.216,2
"BQ27041","DIE SET 4.75MM",42.5,.175,1
"BQ27061","PUNCH 4.75MM",21,.015,1
"BQ27200","PORTABLE FLARE TOOL",345,1.349,4
"BQ27205","PORTABLE FLARE TOOL-KIT",445,3.494,5
"BQ301","USE BQ303-1",13.5,0,0
"BQ301036","DELUXE TUBE BENDER",75,.763,19
"BQ303","....USE BQ303-1....",14,0,0
"BQ303-1","1/8 ID S/S BRAIDED HOSE  CLEAR",14,.087,1106.3
"BQ303-2","1/8 ID S/S BRAIDED HOSE BLACK",14,.087,375.45
"BQ303-3","1/8 ID S/S BRAIDED HOSE BLUE",14,.087,690.8
"BQ303-4","1/8 ID S/S BRAIDED HOSE RED",14,.087,637.4
"BQ304","CENTRE FITTING INSERT SILICONE",25,.048,-8
"BQ3053","CLIP - TOYOTA",2.95,.004,-8
"BQ31B","FITTING STORAGE BIN (BLUE)",2.5,.099,43
"BQ31G","FITTING STORAGE BIN (GREEN)",2.5,.099,12
"BQ31R","FITTING STORAGE BIN (RED)",2.5,.099,35
"BQ31Y","FITTING STORAGE BIN (YELLOW)",2.5,.099,46
"BQ3329001","TEST FLUID 1LT CONCENTRATE",11,1.209,36
"BQ36","SKIVING TOOL",60,0,0
"BQ3858","COPPER WASHER 3/8 ID",.4,.002,2512
"BQ40","ADAPTOR 10X1 - 10X1 DPS",2.2,.026,213
"BQ402","PIPE AID PLIERS 3/16" & 1/4"",70,.453,50
"BQ40A","ADAPTOR 10X1 - 10X1 INVERTED",2.2,.027,655
"BQ41","ADAPTOR 10X1MM - 10X1.25MM",2.2,.022,574
"BQ42","ADAPTOR 10X1.25MM - 10X1MM",2.2,.013,965
"BQ42525","REPLACEMENT CUTTING WHEEL",1.15,.005,15
"BQ4276","TUBE NUT 3/8X20BSF - 3/16BUNDY",1.15,.007,688
"BQ4277","TUBE NUT 7/16X20NF - 1/4 BUNDY",1.15,.009,440
"BQ4285","TUBE NUT 3/8X24NF - 3/16 BUNDY",1,.007,1709
"BQ43","ADAPTOR 12X1MM - 10X1MM",2.2,.024,1160
"BQ44","ADAPTOR 10X1MM - 12X1MM",2.2,.018,858
"BQ4433","BLEED SCREW 3/8X24NF",1.15,.011,720
"BQ4434","BLEED SCREW 10X1MM - LONG",1.15,.014,573
"BQ4435","BLEED SCREW 10X1MM - SHORT",1.15,.013,1006
"BQ45","ADAPTOR 3/8NF - 7/16NS",2.2,.02,3915
"BQ4511","TUBE NUT 10X1MM - 3/16 BUNDY",1.1,.008,1887
"BQ4511LT","TN 10X1-3/16 BUNDY LONG THREAD",1.3,.008,236
"BQ4511S","10X1 TN - 3/16" TUBE SHORT",1.1,.006,649
"BQ4512","TUBE NUT 10X1.25MM - 3/16BUNDY",1.1,.008,94
"BQ4513","TUBE NUT 12X1MM - 1/4 BUNDY",1.1,.011,0
"BQ4513LT","TN 12x1 ON 1/4 BUNDY LT",1.25,.01,-300
"BQ46","ADAPTOR 7/16NS - 3/8NF",2.2,.024,219
"BQ47","ADAPTOR 7/16NF - 3/8NF",2.2,.017,985
"BQ48","ADAPTOR 1/8-27 NPT - 3/8NF",2.2,.015,216
"BQ49","ADAPTOR 10X1MM - 3/8NF",2.2,.014,466
"BQ50","ADAPTOR 3/8NF - 10X1MM",2.2,.013,515
"BQ51","ADAPTOR 12X1 INV SEAT",3.3,0,0
"BQ55","FLARENUT 3/8-24 3/16TUBE SHORT",2.5,.01,0
"BQ5555","TUBE NUT 3/8X24NF - 3/16 BUNDY",.85,.005,3266
"BQ5555G","TUBE NUT 3/8"-24 BLANK",.85,0,0
"BQ56","TUBE TEE 3/8X24NF  SEAT 'X",3.3,0,0
"BQ56A","3/8 24 T PIECE-ROUND SEAT 'X'",3.5,.047,1012
"BQ57","FLARE NUT 7/16X20NF - 1/4BUNDY",1.1,.013,597
"BQ580018","LOUVRED PANEL 1224mm - STEEL",71.5,5.36,1
"BQ5842","TUBE NUT 7/16X24NS - 3/16BUNDY",1.1,.008,235
"BQ60","10X13 BANJO X 3/8NF THREAD",3.3,.028,351
"BQ61","10X13 BANJO X 10X1 THREAD",3.3,.028,1125
"BQ6118","TUBE NUT 7/16X20NF - 3/16BUNDY",1.1,.012,653
"BQ62","7/16 BANJO X 7/16NS THREAD",3.75,.033,151
"BQ6241","BLEED SCREW 7X1MM",2,.066,98
"BQ63","1/2 BANJO X 1/2NF THREAD",3.75,.045,318
"BQ65","PLASTIC CLIP",1.75,0,100
"BQ66","PLASTIC CLIP",2.5,0,100
"BQ67","PLASTIC CLIP",1.75,.002,92
"BQ68","PLASTIC CLIP",1.75,.002,87
"BQ69","PLASTIC CLIP",1.75,.003,89
"BQ70","CLIP",2.5,.003,89
"BQ7005","METRIC TUBE NUT ASSORTMENT",90,0,0
"BQ7006","IMPERIAL TUBE NUT ASSORTMENT",80,0,0
"BQ71620","USE BQ8089",0,0,0
"BQ72","TUBE NUT 10X1MM - 3/16 BUNDY",1.1,.008,940
"BQ7458","USE BQ8086",0,0,0
"BQ7468","USE BQ8087",0,0,0
"BQ7469","BANJO BOLT 10X1.5MM",3.3,.02,23
"BQ7470","USE BQ8088",0,0,0
"BQ77","HALF NUT 11/16X16NF",1.1,.02,33
"BQ78","HALF NUT 3/8X24NF",.55,.004,424
"BQ7812","3 WAY BLOCK WITH BRACKET",4.5,.048,140
"BQ79","HALF NUT 10X1MM",.55,.004,190
"BQ80","HALF NUT 7/16X20NF",.55,.006,89
"BQ8078","BANJO M12 X 1.25",0,0,0
"BQ8083","DOUBLE BANJO M10 X 1",7.5,.023,74
"BQ8084","DOUBLE BANJO M10 X 1.25",7.5,.022,41
"BQ8085","DOUBLE BANJO 3/8 X 24NF",7.5,.022,78
"BQ8086","BANJO BOLT 10X1.5MM",3.3,.019,183
"BQ8087","BANJO BOLT 11X1.25MM",3.6,.023,107
"BQ8088","BANJO BOLT 10X1.5MM",3.3,.021,206
"BQ8089","BANJO BOLT 7/16X20NF",3.6,.023,211
"BQ8090","BANJO BOLT 7/16 X 24NS",3.85,.027,58
"BQ8092","BANJO BOLT M12 X 1.5MM",3.95,.03,73
"BQ8093","BANJO BOLT 3/8X24NF",2.95,.02,797
"BQ8094","BANJO BOLT 10X1MM",3,.022,1102
"BQ8095","BANJO BOLT 10X1MM",2.95,.021,2618
"BQ8096","BANJO BOLT 7/16X20NF",3.75,.026,44
"BQ8097","BANJO BOLT 1/2X20NF",3.75,.037,178
"BQ8098","BANJO BOLT 12X1",3.95,.024,89
"BQ8099","BANJO BOLT 10X1.25",3.3,.02,1129
"BQ81","HALF NUT 12X1MM",.55,.009,98
"BQ82","HALF NUT 12X1MM",.55,.01,36
"BQ83","HALF NUT 1/2X20NF",.55,.008,66
"BQ84","HALF NUT 3/4X16NF",.85,.022,99
"BQ85","HALF NUT M20 X 1.5",1.1,.19,35
"BQ86","HALF NUT M18 X 1.5",1.1,.17,34
"BQ87","HALF NUT M16 X 1.5",1.1,.12,45
"BQ88","HALF NUT M14 X 1.5",1.1,.006,41
"BQ89","HALF NUT 7/8 X 18NS",1.75,.018,43
"BQ90","TUBE TEE 3/8X24NF SEAT 'Y",4.5,.041,116
"BQ91","TUBE TEE 10X1MM  SEAT 'X",4.5,.038,736
"BQ9168","TUBE NUT M10X1 FOR 6MM TUBE",0,0,0
"BQ9174","FEMALE TNUT M12X1X3/16 TUBE",0,0,0
"BQ9175","FEMALE TUBE NUT 10mmX1mm",2.5,.01,1566
"BQ9176","FEMALE TUBE NUT 3/8"-24 UNF",2.5,.011,209
"BQ9177","FEMALE TUBE NUT 1/2"-20 UNF",2.75,.016,87
"BQ9178","FEMALE TUBE NUT 12mmX1.5mm",2.75,.017,223
"BQ9179","FEMALE TUBE NUT 12mmX1mm",2.75,.016,130
"BQ9180","TUBE NUT 12X1MM - 3/16 BUNDY",1.1,.013,888
"BQ9181","TUBE NUT 5/8X18NF - 3/8 BUNDY",1.95,.017,195
"BQ9182","TUBE NUT 12X1.5MM - 6MM BUNDY",1.95,.011,158
"BQ9182LT","TN 12x1.5 ON 6mm BUNDY LT",2.15,.009,-200
"BQ9183","TUBE NUT 14X1.5MM - 6MM BUNDY",1.95,.017,287
"BQ9184","TUBE NUT 1/2X20NF - 3/16 BUNDY",1.95,.013,84
"BQ9185","TUBE NUT 9/16X18NF - 3/16BUNDY",1.95,.019,105
"BQ9186","TUBE NUT 9/16X18NF - 1/4 BUNDY",1.95,.017,300
"BQ9187","TUBE NUT 1/2X20NF - 1/4 BUNDY",1.95,.012,-73
"BQ9188","TUBE NUT 10X1.5MM - 3/16 BUNDY",1.75,.006,266
"BQ9189","TUBE NUT 11X1.0MM - 3/16 BUNDY",2.2,.01,353
"BQ9190","TUBE NUT 11X1.25MM - 3/16BUNDY",2.2,.009,355
"BQ9191","TUBE NUT 11X1.5MM - 3/16 BUNDY",2.2,.01,357
"BQ9192","TUBE NUT 12X1.25MM - 3/16BUNDY",2.2,.012,249
"BQ9193","TUBE NUT 12X1.5MM - 3/16 BUNDY",2.2,.011,295
"BQ9194","TUBE NUT 13X1.0MM - 3/16 BUNDY",2.2,.016,385
"BQ9195","TUBE NUT 13X1.25MM - 3/16BUNDY",2.2,.016,367
"BQ9196","TUBE NUT 13X1.5MM - 3/16 BUNDY",2.2,.015,360
"BQ9197","TUBE NUT 14X1.5MM - 5/16 BUNDY",2.2,.013,120
"BQ9198","TUBE NUT 16X1.5MM - 5/16 BUNDY",2.95,.021,217
"BQ9198A","MALE TN M16X1.5 SUITS 3/8"TUBE",2.95,0,-6
"BQ9199","TUBE NUT 18X1.5MM - 5/16 BUNDY",3.5,.03,331
"BQ9199A","MALE TN M18X1.5 SUITS 3/8"TUBE",3.5,0,0
"BQ92","TUBE TEE 7/16X24NS  SEAT 'X",4.95,.041,1
"BQ92A","TEE PIECE 7/16 X 24NS SEAT 'X'",4.95,.061,94
"BQ93","TUBE TEE 1/8X27NPT  SEAT 'Y",4.5,.037,132
"BQ94","TUBE TEE 7/16X20NF  SEAT 'Y",4.5,.047,146
"BQ95A","10X1 T PIECE SEAT 'Y'",4.5,.065,83
"BQ97","CLIP",1.75,0,100
"BQ98","PLASTIC CLIP",1.75,.002,120
"BQGAUGE","BE-03 & BE-04 PRESSURE GAUGE",55,.304,1
"BQJAWS","CRIMP JAWS - FULL SET",550,1.13,6
"BQRHC","RUBBER HOSE CUTTER",40,.447,30
"CN316","COPPER/NICKEL TUBE 3/16" 7.6M",42,0,0
"CN416","COPPER/NICKEL TUBE 1/4" 7.6M",74,0,0
"HF01","LIFESAVER - PREDRILLED 3/16"",2,.015,3432
"HF02","HOSE FITTING WITH 3/16 BUNDY",3.45,.022,1835
"HF03","HOSE FITTING WITH 1/4 BUNDY",3.45,.023,1185
"HF04","SWIVEL NUT 7/16X24NSX1/4 STR",4.5,.026,158
"HF05","CENTRE SUPPORT LIFESAVER",1.8,.01,713
"HF06","SWIVEL NUT 7/16X24NSX1/4 90DEG",4.8,.029,199
"HF07","SWIVEL NUT 7/16X24NSX1/4 45DEG",4.65,.028,46
"HF08","SWIVEL NUT 10X1MM EUROPEAN",4,.029,813
"HF09","3/8NF FEMALE SWIVEL NUT",4.5,.027,564
"HF10","3/8NF FEMALE SWIVEL NUT",4.5,.031,738
"HF11","3/8NF FEMALE SWIVEL NUT",4.5,.032,338
"HF110","FITTING TO TEST JIG - STRAIGHT",8.5,.037,28
"HF111","FITTING TO GAUGE - 90deg",8.5,.057,28
"HF12","7/16NF FEMALE SWIVEL NUT",4.5,.028,957
"HF13","7/16NF FEMALE SWIVEL NUT",4.35,.034,1018
"HF14","7/16NF FEMALE SWIVEL NUT",4.5,.036,778
"HF15","7/16X24NS - 1/4" TUBE",4.5,.025,791
"HF16","3/8" TUBE NUT ON 3/16" BUNDY",4.5,.024,499
"HF17","3/8"TUBE NUT ON 3/16"BUNDY",4.5,.024,928
"HF18","SWIVEL NUT 1/2X20 STRAIGHT",4.35,.031,261
"HF20","1/2-20 TN ON 3/16 BUNDY",3.85,.037,464
"HF21","7/16-24 TN ON 3/16 BUNDY",3.85,.031,440
"HF26","LIFESAVER - PREDRILLED 1/4"",2,.014,513
"HF27","LIFESAVER - PREDRILLED 5/16"",2,.015,912
"HF28","1/2-20 TN ON 5/16 SHORT BUNDY",4.5,.039,223
"HF29","1/2-20 TN ON 5/16 BENT BUNDY",4.65,.033,380
"HF30","COMPRESSION FITTING 3/16"BUNDY",3.85,.027,115
"HF300","CENTRE MOUNT-LONG",8.3,.109,108
"HF301","CENTRE MOUNT-LONG",8.3,.11,107
"HF304","10X1 TN ON 6MM TUBE BENT 85deg",0,0,0
"HF31","COMPRESSION FITTING 1/4" BUNDY",3.85,.035,129
"HF32","BLOCK FOR 2 HOSES - SKYLINE",6.45,.089,134
"HF33","3/8 X 24NF SWIVEL ( 45DEG.)",4.35,.025,122
"HF34","M10 X 1TN ON 3/16 BUNDY",4.35,.027,15
"HF37","CENTRE FITTING MAZDA",8.3,.066,7
"HF38","CENTRE FITTING MAZDA",8.3,.066,7
"HF71","CENTRE MOUNT MAZDA 6",7.3,.066,394
"HF72","CENTRE MOUNT MAZDA 6",8.3,.065,339
"HF73","CENTRE MOUNT PIECE RX8",9.3,.063,227
"HF74","CENTRE MOUNT PIECE RX8",9.3,.064,225
"HFB01","BANJO 8X10MM",3.65,.023,2436
"HFB02","BANJO WITH LOC.LUG 10X10MM",4.6,.028,1592
"HFB03","BANJO WITH ROLL PIN 8X10MM",4.85,.033,1902
"HFB04","BANJO WITH ROLL PIN 10X10MM",4.85,.033,831
"HFB05","BANJO WITH ROLL PIN 10X10MM",4.85,.03,843
"HFB06","BANJO 16X10MM NISSAN",6.45,.042,1137
"HFB07","BANJO NISSAN L/H",6.45,.066,243
"HFB08","BANJO NISSAN R/H",6.45,.066,528
"HFB09","BANJO STD 10X10MM",3.65,.025,3910
"HFB100","10MM BANJO - MINI",4.45,.03,78
"HFB101","12MM BANJO - MINI",4.45,.031,181
"HFB104","10MM BANJO WITH LEG - BENT",4.45,.026,828
"HFB11","BANJO 16X10MM NISSAN",6.45,.109,324
"HFB12","BANJO 10X13",6.45,.044,818
"HFB13","BANJO NISSAN 16MM",4.05,.039,935
"HFB14","BANJO GMH/FALCON",6.45,.05,1729
"HFB144","BANJO 10MM",5.3,.039,456
"HFB145","BANJO 12MM WITH LOC",5.85,.037,31
"HFB15","BANJO WITH PEG",4.3,.024,434
"HFB16","BANJO 10X10MM EUROPEAN",4.4,.044,1005
"HFB164","BANJO 8X10MM",5.1,.035,158
"HFB17","BANJO 12X10MM",4.75,.047,991
"HFB173","10MM BANJO-LONG BENT",6.3,.066,26
"HFB18","BANJO 13X10MM",4.75,.076,359
"HFB187","BANJO 10MM WITH LOC",5.85,.039,23
"HFB188","BANJO 3/8" LONG-BLOCK",8.3,.134,418
"HFB19","BANJO 13X15MM",3.8,.037,99
"HFB194","10MM BANJO DUAL CRIMP",8.3,.04,46
"HFB20","BANJO 12X10MM",4.75,.05,772
"HFB203","3/8 BANJO-BENT",6.3,.054,24
"HFB21","BANJO 12X10MM",4.35,.048,1789
"HFB22","BANJO 10X10MM UNIVERSAL",4.3,.054,143
"HFB23","BANJO 13X10MM UNIVERSAL",4.3,.06,207
"HFB24","BANJO 8X10MM",5.1,.034,933
"HFB25","BANJO 13X10MM NISSAN",5.25,.066,369
"HFB26","BANJO 13X10MM UNIVERSAL",5.25,.067,386
"HFB27","BANJO 8mm DIA X 10mm THICK",3.65,.018,999
"HFB28","BANJO 10X10MM",4.15,.027,359
"HFB289","DOUBLE CRIMP BANJO 90 DEGREES",8.3,.04,34
"HFB29","BANJO 10X10MM",4.75,.027,71
"HFB30","BANJO 10X10MM",5.1,.04,966
"HFB300","BANJO 10MM",6.45,.048,597
"HFB301","BANJO 10MM - LONG",5.45,.054,797
"HFB303","BANJO 10MM - LONG BENT",5.3,.059,1089
"HFB304","10MM BANJO - LONG BENT",5.3,.059,1092
"HFB305","BANJO 10MM",4.85,.035,908
"HFB306","BANJO 3/8" HOLE-BENT TUBE",6.3,.111,189
"HFB307","BANJO 3/8" HOLE-BENT TUBE",6.3,.112,193
"HFB309","BANJO 10MM",4.85,.041,1112
"HFB31","BANJO 10X10MM",4.95,.05,707
"HFB310","BANJO 10MM",5.3,.056,1081
"HFB311","BANJO 10MM",5.3,.045,419
"HFB312","BANJO 12MM",4.85,.034,462
"HFB313","BANJO 10MM",5,.063,3582
"HFB315","BANJO 3/8" HOLE-BENT TUBE LONG",7.3,.084,36
"HFB316","BANJO 3/8" HOLE-BENT TUBE LONG",7.3,.086,40
"HFB317","10MM BANJO - LONG & BENT",6.3,.079,460
"HFB318","10MM BANJO - LONG & BENT",6.3,.079,464
"HFB319","BANJO 3/8" LONG BENT C/W ACC",0,0,0
"HFB32","BANJO 10X8MM",5.1,.024,171
"HFB320","BANJO 3/8" LONG BENT C/W ACC",0,0,0
"HFB321","BANJO 3/8" HOLE-BENT TUBE",7.3,.092,38
"HFB322","BANJO 3/8" HOLE-BENT TUBE",7.3,.092,39
"HFB323","9.5MM BANJO - BENT",6.3,.065,478
"HFB324","9.5MM BANJO - BENT",6.3,.065,479
"HFB326","10MM BANJO - LONG & BENT",6.3,.045,508
"HFB327","10MM BANJO - LONG & BENT",6.3,.044,472
"HFB328","10MM BANJO - BENT",6.3,.06,465
"HFB329","10MM BANJO - BENT",6.3,.06,452
"HFB33","BANJO 10X8MM",5.1,.035,169
"HFB330","BANJO 10MM-LONG WITH LOC",8.3,.059,511
"HFB331","BANJO 10MM-LONG WITH LOC",8.3,.059,492
"HFB332","BANJO 10MM BENT TUBE 90D",6.3,.07,242
"HFB333","BANJO 10MM BENT TUBE",6.3,.073,244
"HFB334","BANJO 10MM",5.3,.058,1074
"HFB338","BANJO 10MM BENT W/LOCATOR",5.3,.026,867
"HFB339","BANJO 10MM WITH LOC",5.1,.023,991
"HFB34","BANJO 10X8",4.15,.027,512
"HFB340","BANJO 10MM LONG BENT 45D",5.3,.038,244
"HFB341","BANJO 10MM-BENT WITH LEG",5.3,.036,482
"HFB342","BANJO 10MM WITH ROLL PIN",5.3,.025,425
"HFB343","BANJO 10MM WITH ROLL PIN",5.3,.025,438
"HFB344","BANJO 10MM WITH LOCATOR",4.3,.028,257
"HFB345","BANJO 10MM W/LOCATOR BENT 50D",4.95,.027,219
"HFB346","BANJO 10MM W/LOCATOR BENT 50D",4.95,.027,236
"HFB348","BANJO 10MM X 15MM BENT",5.3,.036,196
"HFB349","BANJO 10MM X 15MM BENT",5.3,.035,170
"HFB35","BANJO 10X10-LONG WITH PEG",5.1,.034,789
"HFB350","BANJO 10MM WITH LOCATOR",4.3,.027,247
"HFB351","BANJO 10MM WITH LOCATOR",4.95,.028,233
"HFB352","BANJO 10MM WITH LOCATOR",4.95,.028,260
"HFB353","BANJO 10MM BENT 80D",5.3,.03,332
"HFB354","BANJO 10MM BENT 80D",5.3,.03,282
"HFB356","BANJO 10MM BENT 40D C/W PIN",5.3,.029,328
"HFB357","BANJO 10MM BENT 40D C/W PIN",5.3,.03,398
"HFB358","BANJO 10MM X 8MM BENT 65D",4,.024,199
"HFB359","BANJO 10MM X 8MM BENT 65D",4,.024,226
"HFB36","BANJO 10X8 LONG",5.35,.03,607
"HFB360","BANJO 10MM X 8MM BENT 45D",5.3,.028,222
"HFB361","BANJO 10MM X 8MM BENT 45D",5.3,.027,226
"HFB362","BANJO 10MM WITH ROLL PIN",5.3,.03,491
"HFB363","BANJO 10MM WITH ROLL PIN",5.3,.031,500
"HFB364","BANJO 10MM X 8MM BENT 75D",5.3,.03,187
"HFB365","BANJO 10MM W HORSESHOE PIN",6.3,.031,180
"HFB366","10MM BANJO W/LOCATOR",5.3,.023,49
"HFB367","BANJO 10MM-BENT",5.3,.049,488
"HFB368","BANJO 10MM-BENT",5.3,.049,507
"HFB369","BANJO 10MM-BENT",5.3,.058,418
"HFB37","BANJO 10X10 LONG",4.15,.026,361
"HFB370","BANJO 10MM-BENT",5.3,.058,417
"HFB372","BANJO 10MM WITH LEG",4.85,.028,468
"HFB373","BANJO 10MM WITH LEG",5.3,.038,498
"HFB375","BANJO 10MM WITH LOC",8.3,.031,551
"HFB376","BANJO 10MM-TERRITORY",7.3,.067,1089
"HFB377","BQNJO 10MM-TERRITORY",7.3,.066,1124
"HFB378","BANJO 10MM-BENT",5.3,.05,802
"HFB379","BANJO 12MM WITH LOC",5.85,.037,635
"HFB38","BANJO 16MM X 14MM",4.3,.039,425
"HFB380","3/8" BANJO-LONG-BENT",8.3,.074,481
"HFB381","3/8" BANJO-LONG-BENT",8.3,.077,495
"HFB384","3/8" BANJO BLOCK",5.3,.051,561
"HFB386","3/8" BANJO-LONG-BENT",0,0,0
"HFB387","3/8" BANJO-LONG-BENT",0,0,0
"HFB388","BANJO 10MM LONG-BENT",5.85,.057,1001
"HFB389","BANJO 10MM WITH ROLL PIN",4.45,.029,1153
"HFB39","3/8 BANJO-BENT",6.3,.074,59
"HFB390","BANJO 10MM WITH ROLL PIN",4.45,.029,1171
"HFB391","BANJO 10MM BENT REAR LEFT",7.45,.061,1473
"HFB392","BANJO 10MM BENT REAR RIGHT",7.45,.061,1252
"HFB393","BANJO 10MM-VE COMM",5.85,.04,1108
"HFB394","BANJO 10MM BENT",0,.031,1930
"HFB396","BANJO 10MM BENT",0,.028,928
"HFB397","10MM BANJO BENT 60 DEGREES VE",5.85,.044,668
"HFB398","BANJO 10MM BENT 55 DEG",0,0,0
"HFB40","BANJO 10X11MM",4.45,.033,171
"HFB41","BANJO 11X14MM",5.45,.075,337
"HFB42","BANJO 10X12MM",5.3,.069,446
"HFB43","BANJO 10X12MM",5.3,.069,436
"HFB45","BANJO 10X11MM",5.45,.04,304
"HFB46","BANJO  10X11MM",5.3,.032,303
"HFB47","BANJO 12mm DIA X 10mm THICK",4.25,.024,882
"HFB48","BANJO  11X12MM",5.3,.066,373
"HFB50","BANJO 10X10MM",5,.027,531
"HFB500","BANJO 10MM BENT 90 DEG R/H",0,0,0
"HFB501","BANJO 10MM BENT 90 DEG L/H",0,0,0
"HFB502","BANJO 10MM BENT 65 DEG R/H",0,0,0
"HFB503","10MM BANJO BENT 65 DEG L/H",0,0,0
"HFB51","BANJO 10X11MM",5.3,.061,424
"HFB52","BANJO 16X10 BENT",5.3,.115,419
"HFB53","10.0MM BANJO HOLE",5.3,.035,10
"HFB55","BANJO 11mm DIA X 12mm THICK",5.3,.065,83
"HFB60","7/16 BANJO HOLE",5.3,.042,67
"HFB63","10MM BANJO - BENT",5.45,.066,461
"HFB64","10MM BANJO - BENT",5.45,.062,2053
"HFB65","10MM BANJO - BENT",5.45,.054,1411
"HFB66","7/16 BANJO HOLE",4.45,.039,156
"HFB67","3/8 BANJO HOLE",5.3,.078,44
"HFB68","3/8 BANJO HOLE ( LEFT )",5.45,.081,62
"HFB69","3/8 BANJO HOLE ( RIGHT )",5.45,.08,63
"HFB70","11.5MM BANJO-BENT",5.45,.056,258
"HFB71","11.5MM BANJO-BENT",5.45,.057,326
"HFB72","7/16 BANJO HOLE",5.3,.03,30
"HFB73","BANJO 10X10 WITH PEG",5,.027,94
"HFB74","10.0MM BANJO HOLE ( LEFT )",5.3,.112,38
"HFB75","BANJO 10X10 WITH PEG",5.1,.033,269
"HFB76","3/8 BANJO HOLE ( LEFT )",6.3,.085,37
"HFB77","3/8 BANJO HOLE ( RIGHT )",6.3,.083,52
"HFB78","7/16 BANJO HOLE ( LEFT )",6.3,.09,16
"HFB79","7/16 BANJO HOLE (RIGHT)",6.3,.091,23
"HFB81","BANJO10MM ANGULAR BLOCK",9.3,.084,37
"HFB82","3/8 BANJO HOLE (RIGHT)",6.3,.125,89
"HFB83","3/8 BANJO HOLE (LEFT)",6.3,.125,83
"HFC01","CENTRE SUPPORT",2.35,.017,1624
"HFC02","CENTRE SUPPORT TOYOTA",2.45,.02,1334
"HFC04","CENTRE SUPPORT HONDA",3.95,.042,1141
"HFC05","CENTRE SUPPORT HONDA",3.75,.027,926
"HFC06","CENTRE SUPPORT TOYOTA",2.85,.02,958
"HFC07","CENTRE SUPPORT NISSAN",3.2,.024,1128
"HFC08","CENTRE SUPPORT GMH",3.1,.015,1021
"HFC09","CENTRE SUPPORT SUBARU",2.6,.019,331
"HFC10","CENTRE SUPPORT",2,.021,144
"HFC100","CENTRE - MINI",3.3,.012,375
"HFC11","CENTRE SUPPORT",2.3,.028,548
"HFC12","CENTRE SUPPORT JAPANESE",2.2,.018,661
"HFC13","CENTRE SUPPORT",2.3,.019,1595
"HFC14","CENTRE - UNIVERSAL",4.1,.057,305
"HFC15","CENTRE W/FLAT",3.3,.025,27
"HFC150","CENTRE BA FALCON 02/03 on",8.25,0,0
"HFC17","CENTRE - 2 ROUNDS",2.7,.02,231
"HFC26","CENTRE SUPPORT - FORD",3.1,.01,1298
"HFC300","CENTRE FITTING 1 FLAT",2.85,.026,215
"HFC301","CENTRE SUPPORT W/FLAT",2.85,.019,615
"HFC302","CENTRE RUBBER - FORD KA",3.35,0,0
"HFC303","CENTRE RUBBER - FORD KA",3.35,0,0
"HFC307","CENTRE SUPPORT WITH LOC",5.3,.022,265
"HFC315","CENTRE SUPPORT",3.85,.021,221
"HFC316","CENTRE FITTING WITH MOUNT BKT",6.3,.045,250
"HFC317","CENTRE SUPPORT WITH BKT",5.85,.044,537
"HFC318","CENTRE SUPPORT WITH BKT",5.85,.044,536
"HFC319","CENTRE SUPPORT WITH BKT",5.85,.048,529
"HFC320","CENTRE SUPPORT WITH BKT",5.85,.048,519
"HFC321","CENTRE SUPPORT WITH BKT",5.85,.029,505
"HFC322","CENTRE SUPPORT WITH BRACKET",5.85,.032,567
"HFC323","CENTRE SUPPORT WITH BRACKET",5.85,.043,515
"HFC324","CENTRE SUPPORT WITH BRACKET",5.85,.03,506
"HFC325","CENTRE SUPPORT WITH BKT",5.85,.031,632
"HFC326","CENTRE SUPPORT WITH BRACKET",5.85,.043,514
"HFC327","CENTRE - TERRITORY",4.2,.027,930
"HFC328","CENTRE SUPPORT WITH BRACKET",5.85,.049,535
"HFC329","CEBTRE SUPPORT WITH BRACKET",5.85,.048,559
"HFC330","CENTRE CRIMP FITTING 1 HOLE",4.25,.018,5104
"HFC331","CTR W/LARGE DIA LOCATOR",4.85,.022,90
"HFC332","CENTRE PIECE",0,.019,0
"HFC333","CENTRE PCE C/W BKT R/H FRT",0,0,0
"HFC334","CENTRE PCE C/W BKT R/H FRT",0,0,0
"HFC335","CENTRE PCE C/W BKT L/H FRT",0,0,0
"HFC336","CENTRE PCE C/W BKT L/H FRT",0,0,0
"HFIF01","3/8NF FEMALE",3.15,.033,4445
"HFIF01B","3/8NF FEMALE - BRASS",3.4,.033,1027
"HFIF02","7/16NS FEMALE",3.7,.032,987
"HFIF03","1/2 X 20NF",3.5,.057,197
"HFIF04","3/8NF FEMALE - BRACKET",3.3,.033,734
"HFIF05","3/8NF FEMALE WITH FLAT",3.4,.032,821
"HFIF06","1/2NF FEMALE SPECIAL",3.1,.03,368
"HFIF07","3/8 X 24NF",4,.034,491
"HFIF08","3/8NF FEMALE WITH CLIP",3.15,.033,844
"HFIF09","7/16NS FEMALE WITH CLIP",3.05,.039,812
"HFIF10","3/8 X 24NF C/W CLIP",3.15,.032,496
"HFIF109","7/16-24 T BLOCK (MUSTANG)",5.85,.079,84
"HFIF11","3/8-24 UNF FEMALE",3.4,.033,782
"HFIF12","3/8-24 UNF FEMALE",4,.09,100
"HFIF13","3/8-24 UNF FEMALE",5.45,.087,732
"HFIF14","3/8-24 UNF FEMALE",3.85,.061,368
"HFIF15","3/8-24UNF FEMALE",4,.059,423
"HFIF18","3/8 X 24NF",5.3,.063,30
"HFIF19","3/8-24UNF",4.6,.031,274
"HFIF20","7/16-24UNS",5,.037,261
"HFIF21","3/8-24UNF",3.45,.028,109
"HFIF24","7/16-24UNS",3.3,.031,209
"HFIF25","3/8-24UNF",5.45,.047,84
"HFIF27","'T'BLOCK 3/8X24",6.45,.095,74
"HFIF28","3/8X24-7/16X24-7/16 MOUNT HOLE",5.85,.068,44
"HFIF301","FEMALE 3/8-24 INV",4.3,.04,455
"HFIF303","3/8-7/16 FEMALE LOCATING BKT",8.3,.089,437
"HFIF304","FEMALE 3/8"24 MOUNT BLOCK",7.3,.096,185
"HFIF306","3/8 FEMALE WITH 2 CRIMP SHELLS",8.3,.089,473
"HFIF32","3/8-24UNF",3.3,.036,406
"HFIF33","7/16-24UNS",3.85,.044,343
"HFIF34","FEMALE "T"3/8-24UNF",5.45,.053,379
"HFIF35","7/16-24UNS",3.7,.041,203
"HFIF36","3/8-24UNF",3.55,.031,207
"HFIF37","'T'BLOCK 3/8X24",5.3,.092,331
"HFIF38","3/8 X 24NF",3.55,.036,90
"HFIF39","3/8-24 'TEE' PIECE FITTING",6.3,.069,397
"HFIF40","FEMALE 3/8-24 INV 'TEE'",6.3,.05,61
"HFIF41","FEMALE 3/8-24 WITH SPECIAL BKT",6.3,.093,40
"HFIF42","FEMALE 3/8-24 WITH SPECIAL BKT",6.3,.093,35
"HFIF45","3/8-24UNF",3.45,.031,194
"HFIF46","UNIVERSAL JOINER WITH 7/16X24",5.3,.058,344
"HFIF47","DUAL 3/8X24NF-12MM MOUNT HOLE",6.3,.055,95
"HFIF48","3/8X24-7/16X24-7/16 MOUNT HOLE",6.3,.066,40
"HFIF51","7/16 X 24NS",4.1,.045,50
"HFIF52","7/16X24NS (UNIVERSAL-BRACKET)",4.1,.061,9
"HFIF56","3/8-24 FEMALE INV 'Y' PIECE",6.3,.068,29
"HFIF59","FEMALE 10X1 WITH LOC",8.3,.139,367
"HFIF60","DUAL 3/8 X 24NF",6.45,.14,179
"HFIFX01","FEMALE 7/16X5/8NF EXT THREAD",3.8,.042,1178
"HFIFX02","FEMALE 3/8X5/8NF EXT THREAD",3.8,.044,536
"HFIFX03","FEMALE 3/8BSFX5/8NF EXT THREAD",4.2,.041,205
"HFIFX04","FEMALE 7/16NFX5/8NF EXT THREAD",4.2,.038,605
"HFIFX05","FEMALE 3/8-24UNF DPS",3.8,.042,623
"HFIFX06","7/16X24NS-5/8X18NF",4.7,.042,63
"HFIFX07","7/16X24NS-3/4X16NF",4.7,.097,18
"HFIFX08","7/16X24NS - 3/4X16NF",4.7,.12,12
"HFIFX09","1/2X20NF - 11/16X18",4.45,.048,9
"HFIFX10","EXT 5/8 X INT 3/8 WITH BUNDY",4.85,.063,407
"HFIM01","3/8NF MALE SHORT",2.35,.025,1967
"HFIM02","3/8NF MALE LONG",2.9,.03,5585
"HFIM03","7/16NF MALE SHORT",3.1,.027,3035
"HFIM04","11/16NF MALE",3.7,.057,830
"HFIM05","3/8-1/2NF MALE VOLVO",3.35,.037,471
"HFIM06","7/16NF MALE LONG",4.05,.037,564
"HFIM07","1/2NF MALE LONG",4.25,.049,1359
"HFIM08","1/2NF MALE SHORT",4.1,.033,784
"HFIM09","7/16NF MALE EXTENDED",3.8,.053,894
"HFIM10","3/8NF MALE SHORT",2.9,.03,5713
"HFIM10B","3/8NF MALE SHORT - BRASS",3.15,.031,827
"HFIM11","3/8NF MALE EXTENDED",4.35,.044,461
"HFIM12","3/8NF MALE LONG EXTENDED",4,.049,104
"HFIM13","7/16NS MALE",2.45,.027,297
"HFIM14","7/16NS MALE EXTENDED",3.8,.061,204
"HFIM15","3/8BSF MALE",2.45,.025,103
"HFIM16","7/16NF MALE EXTENDED HEX",3.8,.066,1231
"HFIM17","3/8-24UNF",3.65,.033,609
"HFIM18","3/8-24UNF",3.8,.047,-7
"HFIM19","1/8-27 NPT MALE",3.45,.024,228
"HFIM21","3/8-24UNF",3.8,.041,156
"HFIM22","7/16 X 20NF",4.45,.04,83
"HFIM24","1/2 X 20NF",3.95,.033,50
"HFIM25","3/8 X 24NF",4.35,.058,99
"HFIM32","FITTING MALE TO INTENSIFIER",8.5,.021,55
"HFMF01","10X1MM FEMALE",3.25,.028,5873
"HFMF02","10X1MM FEMALE TOYOTA",3.5,.041,10231
"HFMF03","FEMALE M10 X 1 W/FLAT",4.6,.042,1
"HFMF04","10X1MM FEMALE",3.15,.03,7621
"HFMF05","10X1MM FEMALE",2.95,.023,2839
"HFMF06","10X1MM FEMALE",3.8,.034,834
"HFMF07","12X1MM FEMALE HONDA",3.65,.045,89
"HFMF08","10X1MM FEMALE",3.4,.034,4236
"HFMF09","10X1.25MM FEMALE",3.35,.029,2820
"HFMF10","12X1MM FEMALE",3.9,.046,1089
"HFMF100","10X1 FEMALE - MINI",3.35,.031,405
"HFMF11","10X1MM FEMALE",3.25,.033,5672
"HFMF12","9X1MM FEMALE TOYOTA",4,.036,164
"HFMF13","10X1MM FEMALE NISSAN",3.3,.037,177
"HFMF14","10X1MM FEMALE",3.3,.037,881
"HFMF15","10X1MM FEMALE EXTENDED",6.3,.074,752
"HFMF16","10X1MM FEMALE",3.45,.032,2404
"HFMF17","10X1MM FEMALE EXTENDED",4,.058,94
"HFMF18","10X1MM FEMALE 'T' BLOCK",6.45,.086,1808
"HFMF19","12X1MM FEMALE TOYOTA",3.7,.049,876
"HFMF20","FEMALE 10X1MM",3.45,.032,3648
"HFMF21","10MMX1.25MM FEMALE",3.45,.042,740
"HFMF22","10X1MM FEMALE DPS SPLINE",4,.029,729
"HFMF23","10X1MM FEMALE BRACKET",3.3,.031,4200
"HFMF24","10X1MM FEMALE DPS",3.45,.033,1101
"HFMF25","10X1MM FEMALE EXTENDED",4.25,.048,1110
"HFMF26","10X1MM FEMALE",3.25,.03,902
"HFMF27","10X1MM FEMALE DPS SPLINE",4,.021,290
"HFMF28","10X1MM FEMALE",3.25,.028,836
"HFMF29","FEMALE 10MM X 1MM - LONG NECK",6.15,.047,24
"HFMF30","'T' PIECE 12X1 / 10X1",6.45,.112,75
"HFMF300","FEMALE 10X1 W/FLAT DPS",4.3,.043,425
"HFMF301","FEMALE 10X1 W/ROUND & FLAT INV",4.3,.03,944
"HFMF302","FEMALE 10X1 'T' INV",5.3,.09,935
"HFMF303","10X1 FEMALE ROUND & FLAT DPS",4,.035,433
"HFMF304","FEMALE 10X1 W/FLAT DPS",4.45,.046,372
"HFMF305","FEMALE 10X1 DPS",6.3,.024,556
"HFMF306","FEMALE 10X1 DPS",4.3,.037,1034
"HFMF307","FEMALE 10X1 INV",4.45,.039,296
"HFMF308","10MM FEMALE - LONG PIPE",6.3,.047,451
"HFMF309","FEMALE 10X1 LONG-BENT",8.3,.066,461
"HFMF31","10X1MM INVERTED",3.4,.036,190
"HFMF310","FEMALE 10X1 LONG-BENT",8.3,.065,450
"HFMF311","FEMALE BLOCK 12X1-3/8"24",7.3,.109,228
"HFMF312","FEMALE BLOCK 12X1-3/8"24",7.3,.111,215
"HFMF313","FEMALE 12X1 DPS",4.3,.064,210
"HFMF314","FEMALE 10X1 DPS",4.3,.065,242
"HFMF315","FEMALE 10X1 W/LOCATOR POINTS",4.6,.028,234
"HFMF316","FEMALE 10X1 W/LOCATOR POINTS",4.6,.028,226
"HFMF317","FEMALE 10X1 W/BKT",9.3,.076,281
"HFMF318","FEMALE 10X1 W/BKT",9.3,.097,234
"HFMF319","FEMALE 10X1 W/BKT",9.3,.097,233
"HFMF32","10X1MM INVERTED",5.45,.104,917
"HFMF320","FEMALE BLOCK 10X1 W/BKT",8.3,.105,215
"HFMF322","FEMALE 10X1 BLOCK",6.45,.061,215
"HFMF324","FEMALE 10X1 W/BKT",9.3,.097,231
"HFMF325","FEMALE 10X1 W/BKT",7.3,.047,265
"HFMF326","10X1 FEMALE",3.3,.037,391
"HFMF327","FEMALE 10X1 DPS",3.8,.034,214
"HFMF329","FEMALE 10X1 DPS",3.45,.031,190
"HFMF33","10X1MM INVERTED",5.45,.08,210
"HFMF330","FEMALE 10X1 WITH BKT",6.35,.051,831
"HFMF331","FEMALE 10X1 DPS-SPLINE",4.85,.031,723
"HFMF333","FEMALE 10X1 INV",3.6,.035,628
"HFMF336","FEMALE 10X1-TERRITORY",5.3,.046,909
"HFMF34","10X1MM DPS",5.45,.134,572
"HFMF340","FEMALE 10X1 WITH LOC",5.45,.023,454
"HFMF342","FEMALE 10X1 BLOCK & BKT",9.3,.093,120
"HFMF343","FEMALE 10X1 BLOCK & BKT",9.3,.095,152
"HFMF344","FEMALE M14XM10 BLOCK",8.45,.181,398
"HFMF348","INV M10X1 FEMALE BENT",0,0,0
"HFMF349","INV M10X1 FEMALE BENT",0,0,0
"HFMF35","10X1MM DPS",3.25,.034,826
"HFMF36","10X1MM INVERTED",5.3,.09,315
"HFMF37","10X1MM INVERTED",5.3,.09,348
"HFMF38","10X1MM DPS",4.6,.027,527
"HFMF39","10X1 FEMALE DPS",3.2,.03,190
"HFMF40","M10 X 1 (UNIVERSAL-BRACKET)",3.85,.044,40
"HFMF41","M10 X 1",5.3,.06,24
"HFMF42","DUAL M12 X 1",5.3,.059,27
"HFMF43","M12 X 1",3.65,.036,33
"HFMF44","USE HFMF24",2.95,0,0
"HFMF45","FEMALE 10X1 BLOCK",5.45,.112,670
"HFMF48","10X1 BLOCK - SKYLINE",6.45,.089,1190
"HFMF54","FEMALE 10X1 W/LOCATOR POINTS",6.45,.024,705
"HFMF59","FEMALE 10X1MM W/LOCATOR POINTS",6.45,.03,76
"HFMF62","FEMALE 10X1 W/LOCATOR POINTS",4.85,.028,183
"HFMF69","10X1 FEMALE W/DUAL CRIMP",6.3,.074,57
"HFMF71","10X1 FEMALE DPS 2 FLATS",5.3,.03,30
"HFMFX01","FEMALE 10X1MMX5/8NF EXT THREAD",3.8,.041,723
"HFMFX02","FEMALE 10X1.25MMX5/8NF EXT THD",4.2,.041,81
"HFMFX04","FEMALE 10X1MMX5/8NF EXT & DPS",3.8,.039,95
"HFMM01","10X1MM MALE",2.95,.028,4760
"HFMM02","10X1MM MALE LONG",3.1,.029,2084
"HFMM03","10X1MM MALE",2.7,.025,3096
"HFMM04","10X1.25MM MALE",3.1,.026,1026
"HFMM05","12X1MM MALE",3.5,.037,922
"HFMM06","10X1MM MALE SHORT",2.95,.026,1942
"HFMM07","10X1MM MALE EXTENDED",4.95,.059,129
"HFMM08","10X1MM MALE EXTENDED",4.65,.069,132
"HFMM09","12X1MM MALE LONG",3.95,.041,1324
"HFMM10","12X1.5MM MALE LONG",4.15,.044,869
"HFMM11","10X1.25MM MALE EUROPEAN",2.45,.025,68
"HFMM12","M10 X 1",3.5,.037,1110
"HFMM13","M12 X 1",4.5,.07,57
"HFMM20","MALE 10X1 LONG",3.85,.064,31
"HFMM22","MALE 10X1 - LONG",7.3,.034,0
"HFMM300","MALE 10X1",6.45,.035,362
"HFMM302","10MM MALE FITTING",6.3,.035,456
"HFMM303","10MM MALE FITTING",5.3,.039,549
"HFMM305","MALE 10X1 SPLINE",5.3,.043,613
"HFMM306","MALE M20X1.5",7.3,.07,1038
"HFMM307","METRIC MALE M14X1.5",5.3,.052,945
"HFMM308","MALE M10 X 1 BULKHEAD",4,.037,1067
"HFMM309","MALE M12X1.5",5.3,.033,998
"K486-012","USE BQ4434",0,0,0
"M120-3","USE BQ156",3,0,0
"M300-10","USE BQ117",2.5,0,0
"PK486-020","BANJO BOLT 10MM",2.9,.02,166
"PV010","10LB LINE PRESSURE VALVE",75,.059,52
"SS01","STAINLESS LIFESAVER",5.5,.016,4
"SS02","S/S FITTING WITH 3/16 S/S TUBE",7.75,.031,-9
"SS06","TUBE NUT 7/16 90DEG S/S",8.95,.028,0
"SS07","TUBE NUT 7/16X45 DEGREES S/S",8.95,.028,54
"SS09","3/8 FEMALE SWIVEL NUT STRT S/S",8.95,0,0
"SS09W","S/S 3/8"-24 SHORT SWIVEL",11.5,0,-60
"SS10","3/8 FEMALE SWIVEL NUT X 45 S/S",8.95,.025,41
"SS100","S/S CHASSIS TUBE - HOT RODS",16.5,0,-25
"SS11","3/8 FEMALE SWIVEL NUT X 90 S/S",8.95,.026,0
"SS110","S/S JOINER 3/8x24 - SEAT X",5.95,.02,107
"SS12","7/16NF FMALE SWIVEL NUTXSTR SS",8.95,.026,35
"SS13","7/16NF FMALE SWIVEL NUTX45 SS",8.95,.028,66
"SS14","7/16NF FMALE SWIVEL NUTX90 SS",8.95,.029,58
"SS15","TUBE NUT 7/16 STRAIGHT S/S",8.95,.024,30
"SS150","S/S BANJO ADAPTOR 10mm LONG",12.5,0,0
"SS16","TUBE NUT 3/8 STRAIGHT S/S",8.95,0,0
"SS17","TUBE NUT 3/8 90 DEGREES S/S",8.95,0,0
"SS178","S/S 3/8"-24 MALE NIPPLE",0,0,0
"SS179","S/S 3/8"-24 X M10 NIPPLE",0,0,0
"SS180","S/S 3/8"-24 MALE 'T' PIECE",0,0,0
"SS1900","HOSE RETAINING BRACKET - BENT",1.5,.017,484
"SS1901","3/16" PIPE CLAMP - SINGLE",1.45,.005,3973
"SS1907","3/8"-24 ADAPTOR FOR HOSE CLIP",7.5,.03,952
"SS1908","10MM BANx3/8-24 MALE SINGLE SS",9.95,.012,1023
"SS1909","10MM BANx3/8-24 MALE DOUBLE SS",15,.021,69
"SS2577","S/S TUBE NUT 7/16x24 1/4" TUBE",3.75,0,0
"SS30","3/16" COMPRESSION FITTING S/S",8.5,0,0
"SS30-1","CRIMP SLEEVE S/S (SUITS SS30)",1.5,.0005,446
"SS3052","SS HOSE RETAINING CLIP",.85,.007,1967
"SS3053","S/S HOSE RETAINING CLIP",1.75,.004,-4
"SS31","1/4" COMPRESSION FITTING S/S",9.95,.037,82
"SS31-1","CRIMP SLEEVE S/S (SUITS SS31)",1.75,.001,460
"SS31-10","10MM X 10MM BANJO NECK S/S",8.5,.014,167
"SS31-8","8MM X 10MM BANJO NECK S/S",9.5,.013,146
"SS316","SS TUBE 3/16" 6mt COIL",37.5,.476,808
"SS33","TUBE NUT 3/8 45 DEGREES S/S",8.95,.023,2
"SS40","HARLEY-PIPE CRIMP BOTH ENDS",0,0,0
"SS416","SS TUBE 1/4" 6mt COIL",0,0,0
"SS4285","S/S TUBE NUT 3/8X24 3/16 TUBE",2.95,.008,1500
"SS44","HARLEY-PIPE CRIMP BOTH ENDS",0,0,0
"SS4433","S/S BLEEDER SCREW 3/8"X24",4.95,.011,552
"SS45","HARLEY-3/8TN & PIPE BENT 35D",0,0,0
"SS4511","S/S TUBE NUT 10x1mm 3/16" TUBE",2.95,.008,1130
"SS4513","S/S TUBE NUT 12x1mm 1/4" TUBE",3.5,.012,32
"SS46","HARLEY-3/8 TN & PIPE BENT 90D",0,0,0
"SS48","S/S ADAPTOR 1/8x27-3/8" SEAT X",6,.014,181
"SS486-012","S/S BLEEDER SCREW 10X1",4.95,.014,621
"SS486-012S","S/S BLEEDER SCREW 10X1 SHORT",4.95,.011,889
"SS486-020","10MM BANJO BOLT - S/STEEL",4.2,.019,0
"SS516","SS TUBE 5/16" 6mt COIL",45,.777,115
"SS55","FEMALE 3/8" FLARE NUT-SPECIAL",3.5,.01,632
"SS5555","S/S TUBE NUT 3/8x24 3/16 TUBE",2.95,.006,685
"SS56","SS 3/8"-24 'T' PIECE  SEAT 'X'",17,.045,1029
"SS57","7/16" FEMALE FLARE NUT - SMALL",3.25,0,0
"SS5842","S/S TUBE NUT 7/16x24 3/16 TUBE",3.5,.008,1081
"SS616","SS TUBE 3/8" 6mt COIL",55,.943,110
"SS65","HARLEY-PIPE CRIMP BOTH ENDS",0,0,0
"SS66","HARLEY-3/8 TN & PIPE, LONG",0,0,0
"SS67","HARLEY-3/8 TN & PIPE, LONG",0,0,0
"SS70","HARLEY-3/8 TN & PIPE, BENT",0,0,0
"SS8093","3/8"x24 B/BOLT STAINLESS STEEL",4.5,.018,573
"SS8095","10x1 B/BOLT STAINLESS STEEL",4.5,.017,1240
"SS8095S","USE SS8095",4.2,0,0
"SS8098","12X1mm B/BOLT-S/STEEL",6.5,.026,1055
"SS8099","10X1.25 B/BOLT (SHORT) S/STEEL",4.75,.017,165
"SS9176","FEMALE FLARE NUT 3/8"x24",3.5,.012,7
"SSB09","10MM BANJO - STAINLESS STEEL",8,.025,1599
"SSB151","HARLEY-3/8 BANJO, BENT 80D",0,0,0
"SSB163","HARLEY-7/16 BANJO & PIPE, LONG",0,0,0
"SSB170","HARLEY-7/16 BANJO & PIPE, LONG",0,0,0
"SSB171","HARLEY-3/8 BANJO & PIPE, SHORT",0,0,0
"SSB178","HARLEY-7/16 BANJO & PIPE,SHORT",0,0,0
"SSB34","BANJO 8MM LONG NECK S/S",9.5,.026,856
"SSB37","BANJO 10MM LONG NECK S/S",9.5,.028,833
"SSB47","BANJO 12x10 STAINLESS STEEL",9.5,.025,705
"SSIF01","3/8" FEMALE - STAINLESS STEEL",8.5,.035,602
"SSIF02","7/16" FEMALE - STAINLESS STEEL",8.5,0,0
"SSIM01","3/8" MALE - STAINLESS STEEL",8.5,.027,787
"SSIM02","MALE 3/8"-24 LONG W SS72 NUT",8.95,.034,993
"SSIM03","7/16" MALE - STAINLESS STEEL",8.5,.029,174
"SSIM19","1/8X27 NPTF MALE S/S",8.5,.026,157
"SSMF01","10MM FEMALE - STAINLESS STEEL",6.7,0,0
"SSMF04","10X1MM FEMALE STAINLESS STEEL",8,.032,962
"SSMM06","10X1 MALE STAINLESS STEEL",8,.027,871
"T345-20","3/16" BUNDY TUBE 20MT",21.6,1.537,0
"T345-5.5","3/16 BUNDY CORROSION RESISTANT",16.5,0,0
"T345-6","3/16" BUNDY TUBE 6MT",9.6,.461,60
"T346-20"," USE T346-26",31.2,2.06,0
"T346-6","1/4" BUNDY TUBE 6MT",15,.651,86
"T347-26","5/16 BUNDY TUBE 26M COIL",93,3.195,1
"T347-6","5/16 BUNDY TUBE 6M COIL",24,.748,-3
"T347-C","USE T347-26",75,3.228,0
"T347-C-6"," USE T347-6",22.5,.745,0
"T348-6","3/8 BUNDY TUBE 6M COIL",38.5,.92,3
"T348-C-6","USE T348-6",33.5,.919,0
"W893106","DIE LUBRICANT",25,.464,15
